309905 572535
823895 992333
480625 664260
975898 913510
42845 833002
595156 991762
346157 955304
865404 169299
557835 870075
574106 119077
644657 651447
50012 949651
911506 948650
991 736296
159010 805753
141705 683384
189553 877182
63131 88094
181589 265176
189906 376511
542860 76745
391660 595047
475050 451165
705144 844256
547660 883448
664610 298838
76078 253156
103991 190100
645042 306709
848563 718648
478934 339093
243598 804834
204171 518617
799523 552284
443924 149182
539989 84949
99526 446970
601494 318817
18907 733549
336085 786936
324923 100206
358884 209081
96086 756745
11799 472732
139795 72742
129629 295655
983268 860599
631824 622555
212789 730898
386456 906900
460200 706621
859309 315471
750632 849864
834683 532437
606758 413797
7233 574850
84163 735430
906666 894223
623137 9380
849144 722121
330907 124322
399707 51155
503551 537020
677291 329002
107395 760433
836799 146689
586967 90477
722412 721329
676901 186121
940863 180815
784495 241237
804782 385560
960497 453976
171365 218732
395706 340134
163043 553128
755048 156427
213290 656427
239325 675335
186066 697528
86455 818470
97584 532517
144333 998929
528402 163844
953221 485815
773975 149873
540468 267453
924856 181609
523691 190829
147658 91520
691581 917711
431601 18525
671905 127120
111306 708019
476600 637228
199707 525008
200328 300058
372858 103016
230835 444443
889610 174340
475066 361766
618846 159903
321939 892152
262018 52800
610944 877963
873474 745130
918495 278751
56488 397614
17009 122267
968792 977065
193291 354311
847360 573551
687536 990503
336164 689870
337931 299902
105319 127558
183367 718692
914157 754897
761839 419288
853220 449510
623662 943845
906592 877281
631796 767820
398740 58025
847281 867790
746174 56339
133735 716395
608846 769978
554620 75206
217570 765943
232846 429730
260494 390399
923886 578662
12310 504865
280876 129743
424047 778644
644673 629328
270591 591031
322150 47549
47714 905329
729672 608671
650277 986459
734605 560070
28146 130466
868073 138347
706769 531931
962440 434380
688516 9792
807528 253379
851411 467544
221863 425789
748133 495418
834656 512374
713373 603424
114687 766761
658280 900248
303465 175319
635051 991717
858318 127698
668443 79911
845606 376241
294448 203902
953781 63823
145075 182597
415992 487295
267471 745502
577491 305068
964412 349383
71256 426011
112851 842098
112855 498688
720938 498227
698971 782161
158783 599407
585376 583335
442657 507821
465468 998345
413219 501470
969856 786389
976909 242292
414331 798110
987292 955763
324817 888168
483980 334929
40065 525380
982559 389314
141225 769935
597273 657554
30763 11595
45221 112393
583857 137360
276436 973628
389646 992513
57606 686130
264307 714123
15645 192558
425758 509640
324306 938274
743147 962822
427856 735423
184663 125697
732638 301852
636575 243745
827754 759150
415851 560397
206249 415331
231526 799941
612839 539226
45467 136964
446256 890746
601968 247853
516642 769452
84553 66768
118669 553938
721720 19675
703948 264788
861656 262226
715258 362860
799484 848959
813448 902631
490185 358452
576442 750597
215099 931571
133451 301883
383129 712987
316982 350751
978478 155752
155750 251993
98719 312454
913384 149060
79301 244505
418682 272322
372809 20314
564973 595411
499104 180482
222324 847536
422257 489056
674886 502540
877226 695901
809585 567161
978539 781811
939167 690339
753674 908173
360373 182058
928301 810064
498109 499744
960958 53224
705002 99977
285802 563371
141343 182553
952937 120811
440631 529362
583986 703067
177105 398689
691986 658011
41829 648386
316334 80157
436001 525869
519070 343689
772490 354694
380465 896081
831922 805036
133674 679790
983127 78275
247041 584851
755501 313211
545495 818439
211538 938578
875854 699518
