849250 889162
706772 555269
883648 627825
14432 134804
655325 142436
594721 243835
496800 814506
183944 950397
712774 201478
128675 453750
84958 419818
415549 792749
258042 837982
450269 45799
275865 508851
532749 826422
401302 714802
719346 43817
462218 91501
833852 227153
587238 322426
55595 623616
699424 466617
906931 567231
237455 832702
720848 45432
469846 109580
529933 986687
919358 42745
596928 637168
718568 525377
380788 771445
321392 365363
581747 59621
989837 27246
81932 732623
96129 272171
123338 975203
839402 476547
148899 116938
112550 571081
409231 313072
91112 688206
2265 853939
312757 420658
928381 84765
705642 846326
724090 650321
276673 306781
155188 99575
593961 223955
528007 940554
903136 493623
734491 694325
327631 952148
152126 486332
274790 684872
300927 92989
249012 828728
770460 386960
618964 227448
686824 872819
407141 605582
609075 495063
609550 698814
828513 953343
720014 362615
130700 497628
973635 234035
262478 840318
49683 732945
151998 447849
858469 999252
902755 640503
471857 860124
838254 727818
696249 85822
667361 191174
973064 542188
983299 328646
278195 86092
998711 972735
378300 854153
589999 810548
75441 923872
14167 913501
353761 28972
879982 917456
377990 67342
879337 713408
191554 958736
266623 722184
474058 294269
177164 656548
383949 624031
615643 368128
77745 824612
411680 506926
541780 875570
378296 352829
311590 581865
218174 354277
569534 818492
692432 10878
868136 46124
64821 546727
695838 779303
849100 896510
672460 468800
668357 814023
743969 475714
398767 869711
630962 421551
917804 718241
991781 401058
280579 892335
34369 317620
121237 715718
478931 876477
373892 463287
440105 524086
570090 43786
846458 328623
843441 740089
518764 677788
887155 942379
77930 550740
235035 734844
293375 814933
242398 65442
696533 173782
53148 851791
28238 622814
717839 285205
434885 939514
919894 3223
783918 629085
382341 240025
140151 857036
772192 216779
831591 363243
965604 619685
941663 824332
873507 606241
659642 52463
173523 241975
753801 977239
373591 394955
833378 596140
257391 796753
167654 325792
776083 586827
270911 932544
168061 818583
155983 533444
896116 370959
164692 487554
178790 825859
716667 726922
323042 660039
373822 424089
714190 590360
170291 366444
52201 171072
605540 307544
108801 218384
618346 253962
465221 432688
802632 582698
550902 980806
399498 559185
172053 914144
893921 181888
806791 438535
203409 110052
883262 899510
941516 594960
114158 864163
75003 185629
207561 227989
866578 670064
948644 813716
139343 881807
59492 630739
614408 930368
206065 475861
135066 715270
426744 747405
234465 203178
642745 698795
745180 363345
356524 24653
48822 219894
21157 325171
173046 225722
844153 153579
956877 843791
498819 73647
119063 996838
415527 672712
616443 892315
