358384 115038
738737 865135
417273 26457
258400 111310
581250 960928
554300 2034
905909 813094
838246 422841
932856 921327
36943 417632
763015 457056
113860 937285
916118 7997
214064 214517
505963 908359
795927 259198
499818 924802
268996 426064
345593 7873
760544 673846
781434 327452
964631 638075
22925 495374
146794 830242
939152 340283
434553 862487
923436 669979
538620 592554
112259 852751
604279 724650
716173 631919
471118 204690
988477 45470
253750 575828
920043 43333
94032 512467
412718 894225
315406 552343
342416 959512
817706 274458
995732 488275
180716 299510
510748 477132
231027 660159
741972 197794
518505 774023
105105 138455
975838 544399
319901 487611
4072 483231
734281 579788
883077 913253
567809 457652
508294 732797
323196 782802
644711 375756
562308 901092
323568 826325
871622 87595
884881 525091
533570 219532
866101 960556
110843 243343
738056 163314
798632 140118
80760 72738
337834 849642
710190 179337
125218 552700
632995 95359
564044 134362
584479 364197
565898 969091
983335 654739
599126 703323
392580 994436
432466 821966
954050 92485
353034 943389
628235 346844
312716 41655
258469 344426
552784 593370
699949 546895
148954 625349
379721 705723
309646 759800
104976 254202
406059 34181
891197 367207
134142 167941
389842 151041
81400 340203
721437 902038
6796 241742
582210 715980
967644 469552
890664 955421
677801 101131
136409 899745
749901 898404
157938 299185
348989 891552
617795 199428
997162 437555
67737 879597
633503 925013
432012 83173
18512 867981
134345 625782
685163 914830
493978 628061
680214 941328
250862 727790
792761 1178
201405 291529
457651 642109
692428 640667
722752 194873
918937 552513
399240 110936
412041 281251
156336 916245
971700 779382
871948 135967
766225 46651
651470 517112
523762 641783
161676 969921
578972 757690
63366 64836
153136 697796
904612 969448
419582 544504
512652 228092
338751 754452
962884 94152
540541 221081
464921 956441
709895 575978
416215 421201
647198 766836
853631 990290
655123 875006
170851 809392
48860 586120
620901 858478
528527 605659
478740 220080
324899 540103
874399 419498
940071 663910
425895 943226
913636 437715
670338 807759
192055 640631
212046 16994
983828 54810
960452 22126
457406 227958
874460 515691
650015 476125
804708 261593
597704 28464
396547 876514
827697 667217
853611 430558
140043 527695
111790 392525
343871 751296
134447 835725
428597 601098
561449 551203
871977 259891
710126 724536
265338 647812
273691 972248
154725 620587
779901 875696
741317 240472
932250 970321
322225 328895
425828 409933
944728 586951
861892 393638
455660 588704
270005 681975
84494 997448
56329 120926
299795 412562
127853 216399
378532 532682
23553 454609
629807 590931
80784 272887
462176 769294
579794 907515
888516 377544
75177 277021
172788 125555
541612 57598
538377 944299
264051 616881
501821 957635
455833 388321
112752 340432
308164 958066
657194 566622
281388 348743
652837 277320
820218 694812
877708 726281
833235 186433
822676 180969
123571 296335
745990 545293
577797 245290
430388 544663
776670 181378
903669 292217
673292 323716
2703 398349
118592 735260
958397 637066
258892 163692
462010 675035
667293 673451
432130 718391
47880 798728
288798 216282
776032 440767
337382 251057
409003 825341
815529 396432
12850 413919
572678 93095
132767 105029
820857 405678
684271 363600
661864 625343
441982 611727
870561 851535
240371 205311
900079 373721
80098 16543
648626 26018
183846 783941
705868 822111
863684 334253
385068 354423
