751478 662796 504
667371 880850 525
507516 891452 525
587309 807336 509
447657 606586 470
50338 106675 354
157092 338302 443
394610 547666 470
131592 656174 509
163329 642325 509
613514 395585 470
991734 821780 525
869903 793173 525
655057 988676 525
503447 113823 449
532084 324586 470
253644 769552 509
221236 141520 386
523743 926615 525
79077 489396 449
360679 886903 525
767841 610073 509
628863 355438 509
833579 737054 468
684121 852720 525
818003 853282 525
374363 917943 525
794568 746811 468
730165 219754 509
656791 809318 504
437525 457492 400
934696 940377 507
378232 112456 443
1325 196744 383
711380 680124 504
970176 607491 525
397769 927038 525
877614 538496 525
149589 124594 375
473096 426596 444
808481 504023 509
751742 801691 468
312297 579113 470
345503 32306 443
749112 842531 525
538158 708093 509
220793 653742 509
131883 996915 525
610568 335729 470
10546 537785 470
380135 107886 443
678958 775162 504
573485 118411 470
371621 286528 441
194032 686233 509
40853 126712 354
613895 365237 470
923014 209600 525
956927 539047 525
488294 261174 449
195728 359968 443
394841 695004 509
417668 462328 444
527007 203328 470
824856 800700 450
386972 989279 525
867629 18635 525
285083 740217 509
367388 123558 443
54110 637706 509
579306 390296 470
247630 665032 509
208004 990702 525
293573 638200 509
496184 136238 449
587807 487836 470
224436 593467 470
183674 176042 365
944355 590006 525
763093 848289 525
298386 243932 407
304026 344326 384
993117 761412 525
898886 789715 525
250103 823336 509
40719 803435 509
182019 832046 509
269910 458692 449
144090 725335 509
426694 476346 444
486721 187208 449
534873 300899 470
45035 796784 509
358779 626120 470
515661 96555 470
954814 115479 525
628626 315535 509
585016 993373 525
568397 629686 509
322640 989076 525
943207 845907 507
264542 884270 525
172957 967984 525
998538 454726 525
127593 944162 525
708726 250001 509
957572 437981 525
603604 625787 447
197445 472888 449
447586 709572 509
767004 223195 509
669783 119358 509
742263 184577 509
575158 795064 509
29217 125164 354
800288 579013 509
318964 839742 525
666257 194609 509
538740 866042 525
978241 899339 507
576228 495491 470
407118 802683 509
180033 317514 443
30942 313613 443
146054 507027 449
949487 527209 525
277669 142017 443
699659 446666 509
323626 641221 509
289038 386437 441
792695 226562 509
709139 642881 504
665889 469269 509
846092 768551 525
106770 844705 525
728809 132013 509
49909 598930 470
236136 483184 449
339346 302813 384
925629 473413 525
355661 117951 443
978017 493900 525
436554 117315 449
419625 271015 449
239491 461683 449
125928 159165 383
186514 947105 525
851085 544707 525
615487 775826 509
942054 294420 525
828037 16986 509
453846 161498 449
4895 292906 443
46861 720934 509
274975 766925 509
91458 505474 449
368949 519884 470
510587 461120 444
950909 848868 507
621081 649565 509
989507 852067 507
150834 511051 449
205519 622782 470
659971 727740 504
628981 743686 504
348478 728031 509
729102 997144 525
694104 891402 525
717941 221700 509
822872 127481 509
555896 542976 452
404422 310488 441
906833 706176 525
62585 440766 449
538045 620693 452
709760 993445 525
63223 329351 443
379094 503333 449
544317 794123 509
364979 829147 509
600672 637418 509
793121 351301 509
494486 852613 525
145458 9983 375
866858 420963 525
859768 807760 525
223757 522462 470
349206 767100 509
18724 800542 509
834446 717541 468
786481 959752 525
393780 224634 443
844100 559354 525
810365 694915 504
317558 422639 449
937289 941456 507
761728 667538 504
735551 296643 509
579346 753165 509
164240 894454 525
252828 45073 443
767384 619712 509
912473 361604 525
776437 693771 504
26786 159290 383
621523 922439 525
170736 629467 509
222434 553530 470
204512 524138 470
195167 514941 470
785896 309773 509
756198 363622 509
426200 386243 449
142717 446634 449
579410 852391 525
371596 492055 449
59951 757256 509
873091 774736 525
31015 350445 443
544668 63603 470
701139 24341 509
526815 988016 525
570738 992378 525
417193 888754 525
245968 490863 449
882548 239033 525
809730 548779 509
217685 10485 386
472315 453270 444
836559 970139 525
695965 883377 525
890377 26036 525
346812 939938 525
40465 408639 443
172370 118800 383
560779 863049 525
60466 349453 443
114994 401102 443
264477 387479 441
239106 139150 443
95620 455520 449
109740 677663 509
976598 801235 525
984526 163565 525
857821 331220 525
817946 480384 509
103356 436360 449
503915 667226 509
593139 854858 525
465572 519827 470
594573 765499 509
857301 691240 525
956749 352871 525
385362 728203 509
26864 340222 443
902751 706662 525
863691 67849 525
155188 257820 443
150374 314532 443
995511 291764 525
646352 467724 509
150237 474739 449
467632 521896 470
317659 413608 449
909574 16476 525
861551 602625 525
176254 216971 386
