425999 244787
290536 236418
184558 504219
848125 60582
356017 384128
444396 285079
366940 292484
179229 68047
849738 601165
203750 437716
911477 402107
720674 209565
939426 324018
53118 909296
70798 535526
975243 721344
881088 720360
794680 175686
34408 57934
313422 33849
980762 265132
631823 707989
466957 544095
827214 648421
715169 541164
380522 162214
266380 153317
191399 452680
319069 511023
560357 460304
903937 421016
751776 879340
174536 955922
132361 607808
361298 978059
352706 798404
912083 444912
491330 831784
633773 278889
882796 615654
507655 540383
311746 260441
511611 643159
464991 349697
99873 646159
668212 789496
300553 954107
647603 71975
67081 178249
879466 351547
168814 771150
985968 379814
706567 745730
69254 543913
554030 973229
981188 961812
594900 692766
641998 385132
9967 607353
358083 8621
935853 912087
664354 181923
406397 520368
128466 378867
687829 805074
451140 59438
338603 291700
246157 158623
316787 847189
557633 229891
829489 492606
419737 644122
336048 823703
117903 125450
124731 305372
28413 203745
443470 717424
333846 217624
845631 194619
83991 356009
134528 53827
441836 429007
507164 410052
759757 831235
986411 316946
635001 46300
693847 26969
324429 521199
623015 4645
908533 479347
488160 22493
151721 120742
964867 834027
324238 872381
391750 935666
552847 821280
671862 435376
914017 316532
397039 858284
452366 818798
27251 294790
247054 942481
826585 767313
718752 135898
959479 591554
415964 259876
410664 582828
264108 832006
73286 89758
818327 561873
522709 553005
749197 728593
804464 243114
258040 701596
724420 315910
967415 842850
6601 432300
374423 117600
907846 12378
112811 136898
728520 933576
172571 208907
168783 615175
718677 191149
143945 203072
507282 833665
384138 30470
326202 480883
349491 91923
99878 199717
430986 114088
604010 135187
62252 732005
20947 127137
712708 69375
396244 218193
346895 914610
96418 206740
794041 231735
970463 13224
530327 855784
351200 604315
625457 276398
44097 688776
269660 672487
613724 683561
980544 851788
577090 36924
556703 565996
893518 347677
428559 195948
292593 603982
945051 314858
460795 552842
129386 904393
119975 350483
922635 736382
940374 489061
229873 643955
399688 75535
939182 330270
116975 534406
945781 545653
734459 193213
986330 886688
953905 265262
383746 421548
58107 323974
461100 954943
962575 303947
823008 201772
36264 873129
138784 463572
484076 254992
81261 350464
276642 299186
933754 950998
459198 529282
258046 158141
767660 873774
642225 505096
745075 373107
987287 389749
826485 570291
931408 704479
890684 732246
235959 470611
709230 692403
587607 277491
46080 885592
895217 429267
482618 159547
863810 677713
606690 498907
865919 190657
694336 452138
223350 576076
393648 994632
232806 993027
95517 868543
194648 467465
972808 788567
766581 196313
728089 373669
307039 928499
848224 403714
705985 894488
37536 456321
975487 317168
821551 710414
559541 462084
909701 760116
100730 877508
708279 536661
955647 846066
663785 640269
166360 98269
781754 260297
238951 283760
531189 970045
233334 793145
889266 272730
150287 176060
17763 497789
874248 421427
300197 195071
41169 931419
163835 724295
256201 406613
9402 557054
198744 173266
233430 442234
906566 959402
919070 470939
947257 113964
251559 21987
388288 36460
609748 443907
455920 138816
142587 726918
593891 122097
359311 718403
970078 120736
507300 142279
673607 458142
681739 903308
870921 487010
922284 707203
481236 692613
364560 673799
