1 10
100 200
201 210
900 1000
453557 649579
455728 914186
671078 210196
834795 913908
500909 691062
943888 759857
222520 648505
812245 204369
845160 523387
486561 175980
994242 626204
894565 557178
154647 621468
252177 485692
24206 216569
235784 697204
273668 855803
782646 40411
164948 558392
236544 572983
601243 24452
397767 209218
784202 300730
200396 441531
431228 749734
824822 972516
303828 590841
696877 525005
555791 344156
836784 956104
377142 720229
875157 728970
159129 488810
281519 698027
708888 188415
338851 753523
924402 842020
663847 543380
129071 906050
907709 575278
114927 72697
731344 529405
690067 959461
1488 179831
481295 723359
433401 315041
339946 409671
137128 324639
889718 43944
95145 769980
616710 645464
875477 685999
944510 332768
418053 559132
234757 39914
474373 584374
272434 248404
620731 231340
337237 52689
546552 163757
454044 856662
358990 831620
670117 207166
626228 587275
609923 150412
906487 839973
598945 713097
370003 872117
760374 231042
178191 472441
220174 288528
602802 338177
579855 107940
522456 828873
432793 383328
611946 147176
711557 255816
374892 388446
445391 180941
344911 889501
807278 340851
415838 856113
998689 317201
365176 745214
1234 5124
3125 64236
6243 24633
213556 43
15 1532
1532 624623
512 4632
842436 345
2346 745
830917 247673
605166 698736
250775 750423
548658 735370
697418 221738
674506 775131
782104 995119
688190 450223
605640 50002
432257 353981
763785 412717
392158 549511
46342 2342
243633 111111
2235 234556
420 4200
123456 654321
426623 768549
8435 243432
98145 2345
1946 1999
2000 2020
12453 100
1 125
250 999
960241 434271
865659 145616
247124 142282
696882 196103
870734 724258
717651 844368
194195 776592
962758 990289
395063 565491
304643 88480
613617 355871
305111 211731
316371 604483
957452 453848
665289 979056
567492 345028
692765 823989
364883 196529
295997 228556
397112 643560
35749 432471
894433 808754
820502 391768
364609 370647
88600 654313
722761 757767
87290 442382
643180 46134
266055 358333
941982 970481
82622 512537
229080 385203
96289 712487
695533 924474
595040 725201
672145 732841
998655 7262
577354 717087
509081 840594
831500 527723
405410 729795
964162 557387
621608 214793
596158 637212
665236 843379
524781 817404
503074 466958
573818 751662
667837 982661
151060 556633
797029 930319
2436 124355
62342 12
8445 644821
100000 200000
200001 333333
543321 909090
828582 747474
435222 346666
442555 653614
562904 542108
955680 43039
927312 18601
722285 700736
735440 786085
278073 331556
643254 105690
54385 159606
753970 258474
48800 786717
212860 912835
17 20
20 99
29292 4
74 89
920 333
139910 560
239 112200
34242 99
572285 44276
362837 205472
679972 124127
671573 436067
671880 40028
859800 847512
480940 212254
999 91111
1 999999
