108054 373163
923525 554883
407977 260131
640480 480745
350076 981036
847176 180369
269938 616593
127864 627444
527798 25086
34916 179199
687301 680303
92918 171018
16032 394193
402351 530274
382786 444400
760774 693864
864190 377089
546450 765967
479818 616020
243763 117764
437905 96721
368457 53687
130699 413363
103856 535057
44969 172558
361126 471321
396547 754210
17227 251030
229261 792875
970415 840382
686403 14874
525577 922993
455842 967771
348607 852703
20112 424591
941919 426755
905472 658682
245119 265022
999236 612691
94574 407436
673457 939071
578516 489672
953589 84306
892892 643415
293896 475419
345140 786475
924919 68289
505815 341839
681867 440949
581667 171725
561666 76776
123037 512712
914692 349177
157564 799362
40734 545058
946965 548246
692001 801297
619991 3580
392978 428556
461811 705601
147302 211949
74975 376243
459189 929181
324398 764367
637814 734657
206171 566002
491020 305598
846432 695130
688241 501089
902002 505022
239967 249459
587698 754302
295365 837897
879905 573598
660835 496969
31428 488961
392317 784960
992022 630427
888594 99425
657600 514878
292841 322107
635566 350318
663920 775752
278209 923387
978024 763084
656880 898328
578871 443984
192675 863271
33584 237096
412679 303475
107452 813332
246918 197384
525064 19567
447170 225712
766286 206622
787935 104681
139939 636804
354778 555640
946135 105994
524721 131343
609865 440722
102227 757748
209867 273462
442223 475769
705149 442242
750164 512618
593021 610877
554573 371126
617936 631820
251199 332139
642064 482502
651499 366780
370939 759003
904825 642902
587019 693590
258411 1850
374099 973340
168908 656028
63744 973963
146400 131945
815267 555460
115954 657790
820889 367275
767719 126916
62475 258716
371606 772980
119458 298195
767645 291175
175615 110097
107959 694789
935235 341679
265385 606566
395946 390196
298222 222581
815009 716817
138541 291862
184311 237549
929579 979545
693901 649710
405966 861338
578264 862820
323706 744258
271261 923137
754378 285952
623050 118358
226064 760369
531356 34187
688158 129436
728506 163553
51425 782032
622110 887562
881634 234322
649437 828004
426429 154404
60973 934252
604900 557943
37602 929178
870942 921071
122896 584479
756807 131750
693760 330559
145549 584247
217694 415988
622994 391861
287906 406974
464290 484400
746985 535491
139256 377090
465514 125303
959479 181487
335044 202498
458284 796671
425355 265293
783322 220630
439076 755520
752215 291803
606013 748896
834288 265466
996749 310242
857108 491801
819937 54218
852332 507043
913956 793193
96138 513453
958777 79245
912841 121340
831068 515713
794147 377145
311519 435314
766711 735249
111660 307148
702098 193286
644165 561998
705809 56889
440438 988262
920959 192629
464757 144931
15293 932346
48982 577306
271422 584274
198522 260251
582752 465608
573063 553120
658501 959776
193119 26235
996912 376226
51775 41582
498814 948258
807989 132178
725125 419471
382464 544301
317332 649950
885473 171816
32352 230283
646356 562108
