600211 413535 470
639049 205167 509
594452 196493 470
13502 495807 449
222741 988669 525
602366 908775 525
2243 448189 449
664813 852846 525
272984 386945 441
757867 433042 509
380798 87712 443
577992 817183 509
313301 619386 470
148700 787301 509
821361 732379 468
725572 690849 504
562083 255201 470
688818 37769 509
875832 238939 525
494718 584982 470
135439 417110 449
780434 368787 509
322787 581395 470
697077 557690 509
23878 689338 509
444299 524424 470
737013 331505 509
85004 623669 470
110089 808245 509
71139 471856 449
513865 330635 470
827511 721146 468
583655 825056 509
780975 707368 468
556387 504890 470
622591 212212 470
123917 574825 470
742743 63237 509
482269 789232 509
695949 531112 509
132384 813648 509
869241 89772 525
670651 383654 509
931805 491521 525
955442 738827 525
161467 815741 509
756200 779521 468
913815 748567 525
678337 947330 525
138489 330922 443
146701 772917 509
950179 797545 525
349985 47667 443
612516 994552 525
140490 844247 525
95641 694658 509
378235 650777 509
365959 38015 443
293332 19937 443
39871 24004 324
787040 552676 509
156271 579884 470
564501 950008 525
7047 854995 525
337557 399807 441
554917 809386 509
802351 827715 450
575223 599988 434
729416 157877 509
768624 993093 525
142238 429815 449
589551 153978 470
56984 611760 470
497814 460123 444
143347 687999 509
379215 511061 449
225653 827722 509
652724 950387 525
263490 480540 449
264338 349675 441
935037 669957 525
485614 512555 470
445339 214925 449
466534 607885 470
155571 108570 375
402627 19651 443
306170 325657 384
294903 932582 525
670512 852265 525
810182 466643 509
554997 279395 470
955713 199425 525
564877 557314 359
337402 963006 525
224384 912832 525
551438 592791 434
929570 125885 525
820724 768461 468
549032 656488 509
206590 959382 525
381330 421916 449
71843 38835 340
238394 589422 470
934586 546343 525
477546 304482 449
954878 652000 525
577641 590475 434
565277 889683 525
589080 649288 509
239954 537189 470
913188 906233 476
889358 751519 525
476537 996915 525
720485 591101 509
237085 428012 449
259929 420004 449
790954 464858 509
491515 611476 470
436082 715253 509
156407 12390 383
237508 330851 407
246885 899653 525
229531 754186 509
716242 368802 509
29433 591835 470
127465 271964 443
10920 62776 340
283473 607563 470
60865 434340 449
771856 81233 509
357136 704514 509
880263 333070 525
829914 502660 509
838496 702966 525
110124 58462 354
127442 99708 354
437088 165437 449
162810 413837 449
169153 885006 525
539247 25964 470
877203 491340 525
802278 614669 509
584749 554001 434
934112 313889 525
618804 912199 525
688162 457362 509
482023 975843 525
466111 431819 444
932071 95677 525
363219 907638 525
684440 371062 509
305839 450716 449
268054 766014 509
870337 924047 476
420190 438931 418
223060 739554 509
836858 768157 468
629236 462644 509
379853 965100 525
602246 300719 470
432197 197711 449
856083 454907 525
267474 910304 525
41868 636187 509
363984 173550 443
125516 233633 443
449664 801201 509
537545 843822 525
323184 212632 443
651807 290712 509
249966 353872 441
263447 50841 443
334216 213148 443
526475 664332 509
834003 457025 509
838651 564838 525
565027 249867 470
794771 314248 509
879263 645485 525
849023 878389 432
186273 429247 449
754625 787508 468
246646 718458 509
79073 488142 449
763706 483818 509
982852 866572 507
839152 545218 525
192790 718857 509
630021 157609 509
866576 73387 525
972564 185555 525
226078 615607 470
212204 562037 470
356095 915381 525
616685 331776 470
253291 820414 509
44780 628686 509
730062 750082 424
5704 759523 509
810105 962403 525
480926 667536 509
686124 151272 509
885193 708629 525
535789 560015 452
628416 796490 504
367503 838363 525
612581 115465 470
912283 228075 525
209096 383315 443
746412 836641 468
789240 495493 509
339008 430490 449
259138 824770 509
436782 556951 470
489300 788912 509
884367 958376 507
11195 529646 470
44372 269873 443
69517 567670 470
682121 840273 525
380195 396480 436
977950 180985 525
742550 385534 509
80494 62102 351
611244 358382 470
979644 118567 525
149474 840621 525
76744 40492 340
773464 297196 509
468463 164491 449
435371 971306 525
26301 578746 470
