487627 182804
12211 318576
45496 734901
304648 29871
769982 679602
125181 633597
285378 912640
308496 83460
988763 142193
834021 889606
934405 183012
720959 174288
369875 712235
133101 510991
973609 55059
571830 791524
890454 755348
966501 135765
576920 299858
940261 690087
41674 193808
761690 265868
869121 408932
998474 522133
858105 648789
528172 634165
744223 876571
783045 7971
242938 335172
200359 950883
480002 357443
541322 465518
383694 279493
291422 725691
154043 760986
34561 962211
546903 138306
444845 715035
977989 38099
628564 363107
340554 402022
776434 64130
373805 249412
795771 405981
637534 530620
627388 42912
740786 621500
156343 343807
938947 488116
506456 52501
466650 752196
611224 569944
136421 487747
272784 802851
851544 352520
42928 340644
879573 106023
827604 570450
658200 732404
829501 208585
941468 841859
860069 374708
122743 950437
895331 585226
535361 906188
677449 699536
954975 120192
225754 7283
517045 143903
372379 384366
718618 123464
24788 882351
137557 351763
55115 106861
803901 818938
66167 160020
228981 481419
946682 714905
987631 707662
742922 384810
899596 348775
783270 996586
715953 471961
660101 196290
177934 973262
876057 258583
900056 581951
16943 590111
255343 159009
776423 917011
989546 864926
942046 899916
854963 971089
400460 617058
944164 583068
493553 580106
69344 336530
270227 245188
134589 617821
306795 547819
453734 654484
871504 637676
951310 260009
673503 980590
771624 217905
599074 725271
679867 556753
825154 753178
566872 894929
792377 28847
607696 688714
896702 904449
952072 197499
669407 134581
597861 633699
579573 62063
459342 460505
294067 485410
696230 514552
63654 874436
493168 601979
546981 654168
14647 98055
658245 601888
54316 738082
128870 663617
809881 349122
859811 587663
943297 542531
842741 119663
469724 322193
506444 440877
330801 382787
967552 390628
608854 314464
114403 967697
418195 628920
585111 612693
216311 404977
822745 587581
231094 865763
433282 212505
945149 733404
695044 594644
104288 103901
461979 649014
312242 72404
340146 507991
80167 961409
104349 102418
855693 876167
313609 571214
851180 72190
211781 230428
341867 813051
698536 799248
816482 720613
686838 201383
633245 474983
436368 344846
257951 737013
851253 951931
238255 41607
40175 691406
867978 108445
487751 95848
299526 659496
305801 238493
702706 346102
737570 52070
407579 868554
272301 193320
230923 162483
194706 13017
758732 462793
160792 518399
220759 407462
784085 247362
630657 753718
106498 19788
939121 71554
276750 889846
307285 417859
593573 866915
911779 849156
681322 125879
407059 939124
556955 812385
939365 243779
200247 115467
764955 520724
481516 566277
240319 368393
709452 651808
129445 918662
241769 841169
674957 81344
4456 889568
882856 172022
217042 409363
873383 180517
453161 522420
605956 679149
251176 60572
196533 976724
860528 992609
579039 498915
328897 338716
