637209 304847 509
935899 817882 525
722418 833275 468
710994 955481 525
653036 917116 525
652089 712160 504
974508 74682 525
56401 458558 449
600667 649312 509
189518 651115 509
335981 995482 525
181250 660147 509
641337 668028 442
114999 272931 443
381478 827962 509
496123 395178 449
714249 312186 509
72240 938653 525
25955 762599 509
927695 376937 525
557203 719530 509
173905 271487 443
106150 218906 386
594536 98008 470
557020 420548 470
120734 814253 509
419341 505246 444
668096 18188 509
832089 844499 525
454822 561233 470
760001 610118 509
923765 871475 476
935736 942205 507
60526 676897 509
218276 833478 509
117888 68779 354
124017 330910 443
646972 590403 509
938901 17858 525
570480 577896 390
549389 771805 509
617168 119366 470
384868 180040 443
4680 423903 449
815143 425855 509
327045 682347 509
591267 172807 470
499724 517164 470
928691 382250 525
968831 491420 525
527344 356838 470
799105 208810 509
900781 451031 525
30879 570172 470
992010 603080 525
849913 152127 525
970080 679965 525
171453 619194 470
659860 952400 525
807417 905829 525
888120 720528 525
740568 278914 509
642 490033 449
805189 358369 509
10855 216029 383
329622 504726 449
918941 213319 525
6437 262407 443
180769 186106 334
542359 940351 525
879977 650559 525
886591 363710 525
981436 666761 525
621494 180484 470
949034 360397 525
720810 381084 509
598289 521108 452
191616 552722 470
312321 475244 449
542356 403936 470
568545 719451 509
570366 642975 509
421025 535424 470
186672 205395 360
298684 894890 525
357614 392523 436
958947 528103 525
876024 757124 525
28933 110225 354
942253 551866 525
611427 822236 509
872908 324070 525
762458 545165 509
480671 23236 449
89351 161485 383
441070 663925 509
49787 762410 509
4283 803158 509
989007 721817 525
512905 67650 470
639539 159841 509
750334 216576 509
357328 502608 449
521260 430316 470
296909 310197 371
956184 389171 525
455270 712689 509
335318 80130 443
908373 202506 525
530698 581360 452
387610 19192 443
374698 569944 470
861178 795820 525
475105 894131 525
294633 423462 449
494788 559864 470
815900 723653 468
681278 666919 385
406351 850912 525
865348 500019 525
64577 84442 351
225743 997459 525
332718 448427 449
200321 282376 443
295576 228140 443
713314 807412 468
190099 887345 525
767444 163941 509
152963 967216 525
345805 676695 509
973042 508050 525
612190 508449 470
227925 425485 449
367042 253100 441
184640 741699 509
157617 402546 443
228514 178494 386
139346 693492 509
943664 375590 525
272079 321780 389
565781 874401 525
764686 952812 525
244595 240381 368
68567 850989 525
691727 6781 509
375354 52568 443
369641 254852 441
894559 346658 525
538287 746103 509
7585 701306 509
949153 796326 525
921403 583061 525
371446 381779 423
384618 697447 509
437360 915177 525
102504 536249 470
8294 753057 509
536977 103689 470
979231 720534 525
943478 503933 525
342187 596602 470
601850 495105 470
65532 44792 340
143595 685277 509
419995 156751 449
968073 410526 525
782610 514247 509
735409 794476 468
659101 611659 509
758838 388785 509
218296 717379 509
127454 117088 336
213139 782081 509
312386 139549 443
209049 962978 525
182024 26872 383
517067 953574 525
468462 819681 509
757248 957259 525
667372 521368 509
72878 407812 443
748816 894434 525
217811 847227 525
874944 104523 525
654409 755477 504
669737 861740 525
80933 675366 509
362798 665557 509
684652 568653 509
101053 888482 525
415557 358733 449
451498 206927 449
340737 856417 525
972408 263925 525
216991 669244 509
574544 293953 470
321395 593525 470
515286 15811 470
178212 514017 470
218530 168910 386
304225 119140 443
465108 209035 449
76171 32583 340
